<?xml version="1.0" encoding="UTF-8" standalone="no"?>
<svg width="80px" height="80px" viewBox="0 0 80 80" version="1.1" xmlns="http://www.w3.org/2000/svg" xmlns:xlink="http://www.w3.org/1999/xlink">
    <!-- Generator: sketchtool 46.2 (44496) - http://www.bohemiancoding.com/sketch -->
    <title>4CCFF791-54E3-47CE-9C72-2CD01B5D20CA</title>
    <desc>Created with sketchtool.</desc>
    <defs>
        <polygon id="path-1" points="0.0117073171 0.0770654595 0.0117073171 79.8055474 79.9223415 79.8055474 79.9223415 0.0770654595"></polygon>
    </defs>
    <g id="Page-1" stroke="none" stroke-width="1" fill="none" fill-rule="evenodd">
        <g id="02@for-parents" transform="translate(-41.000000, -359.000000)">
            <g id="open-book" transform="translate(41.000000, 359.000000)">
                <path d="M45.1382496,38.2723178 C45.363262,38.733027 45.8117954,39 46.2748698,39 C46.4680039,39 46.6667307,38.953519 46.8509165,38.8543073 C46.926045,38.8146617 54.4170755,34.8286194 58.1114177,33.6056602 C58.7812351,33.3830199 59.1527759,32.6338548 58.9400674,31.9327332 C58.7288503,31.2308304 58.018952,30.8402334 57.3429826,31.0622878 C53.4515914,32.3516485 46.0112679,36.310935 45.6960268,36.4786964 C45.0698324,36.8120709 44.8200257,37.6147477 45.1382496,38.2723178 Z" id="Fill-1" stroke="#F4F6F7" fill="#FF2E2E"></path>
                <g id="Group-5">
                    <mask id="mask-2" fill="white">
                        <use xlink:href="#path-1"></use>
                    </mask>
                    <g id="Clip-3"></g>
                    <path d="M46.6226341,22.6676399 C46.8247805,22.6676399 47.0327805,22.6203406 47.225561,22.5222384 C47.3041951,22.4827251 55.1447805,18.5091971 59.0115122,17.2910949 C59.7125854,17.0691971 60.1014634,16.3225304 59.8788293,15.6229684 C59.6577561,14.9241849 58.9147317,14.5348905 58.2072195,14.7554258 C54.1342439,16.0404866 46.3467317,19.9873479 46.0167805,20.1545499 C45.3613659,20.4868127 45.0999024,21.2868127 45.4329756,21.9414112 C45.6684878,22.4013625 46.1379512,22.6676399 46.6226341,22.6676399 Z" id="Fill-2" stroke="#F4F6F7" fill="#FF2E2E" mask="url(#mask-2)"></path>
                    <path d="M78.5898537,20.0093431 C77.8536585,20.0093431 77.257561,20.6047689 77.257561,21.3383942 L77.257561,73.1610706 C77.257561,75.3592214 75.4649756,77.1474453 73.2622439,77.1474453 L41.2934634,77.1474453 L41.2934634,74.0901217 C43.2355122,73.4127494 48.2942439,71.8326034 53.2811707,71.8326034 C64.884878,71.8326034 72.7637073,74.3957178 72.8421463,74.4223844 C73.243122,74.5547445 73.6905366,74.4885645 74.0411707,74.2384428 C74.3886829,73.9890998 74.5937561,73.5875426 74.5937561,73.1610706 L74.5937561,14.6946959 C74.5937561,14.0710462 74.1607805,13.5320681 73.5510244,13.3975669 C73.5510244,13.3975669 72.5069268,13.1647689 70.7217561,12.8379562 C70.0007805,12.7048175 69.3041951,13.1838443 69.1707317,13.9038443 C69.0380488,14.6269586 69.5160976,15.3189294 70.2394146,15.4518735 C70.92,15.5766423 71.4901463,15.6868127 71.9299512,15.7742092 L71.9299512,71.3954258 C68.9116098,70.6055474 62.2087805,69.1745012 53.2811707,69.1745012 C47.4778537,69.1745012 41.7765854,71.0762044 40.012878,71.7208759 C38.4450732,71.0296837 33.7057561,69.1745012 27.9724878,69.1745012 C18.7972683,69.1745012 11.2394146,70.6845742 7.99239024,71.4510949 L7.99239024,15.7226277 C10.6524878,15.0701703 18.5082927,13.3654501 27.9724878,13.3654501 C32.8292683,13.3654501 36.9947317,14.8739659 38.628878,15.5552311 L38.628878,67.8462287 C38.628878,68.3244769 38.8872195,68.76691 39.3041951,69.0018491 C39.7209756,69.2383455 40.2355122,69.2323114 40.6470244,68.9845255 C40.7789268,68.9060827 53.9763902,61.0427251 65.6905366,57.1482238 C66.2355122,56.9658394 66.6013659,56.4593674 66.6013659,55.88691 L66.6013659,1.40613139 C66.6013659,0.970510949 66.387122,0.562919708 66.0275122,0.314355231 C65.6706341,0.0655961071 65.2119024,0.00856447689 64.8003902,0.161557178 C54.1432195,4.14948905 43.3590244,10.8434063 43.2507317,10.910365 C42.6273171,11.2996594 42.4374634,12.1193187 42.8277073,12.7412165 C43.2163902,13.363309 44.0380488,13.5532847 44.6630244,13.1639903 C44.7613659,13.1009246 54.1432195,7.27824818 63.937561,3.34948905 L63.937561,54.9356691 C54.8444878,58.0872019 45.3514146,63.2340633 41.2926829,65.5379075 L41.2926829,14.6946959 C41.2926829,14.1905596 41.0076098,13.7311922 40.5564878,13.5054015 C40.3270244,13.3921168 34.8680976,10.7081265 27.9724878,10.7081265 C15.936,10.7081265 6.68292683,13.3062774 6.29346341,13.4172263 C5.72253659,13.5791727 5.32780488,14.1016058 5.32780488,14.6946959 L5.32780488,73.1610706 C5.32780488,73.576837 5.52507317,73.9708029 5.85678049,74.2217032 C6.0915122,74.3988321 6.37346341,74.4901217 6.66009756,74.4901217 C6.78282927,74.4901217 6.90556098,74.4726034 7.02517073,74.4383455 C7.11668293,74.413236 16.3278049,71.8326034 27.9724878,71.8326034 C32.8421463,71.8326034 37.0039024,73.3450122 38.628878,74.0239416 L38.628878,77.1474453 L6.66009756,77.1474453 C4.45658537,77.1474453 2.66380488,75.3592214 2.66380488,73.1610706 L2.66380488,21.3383942 C2.66380488,20.6047689 2.06712195,20.0093431 1.33229268,20.0093431 C0.596878049,20.0093431 0,20.6047689 0,21.3383942 L0,73.1610706 C0,76.8251095 2.98770732,79.8055474 6.66009756,79.8055474 L73.2622439,79.8055474 C76.934439,79.8055474 79.9223415,76.8251095 79.9223415,73.1610706 L79.9223415,21.3383942 C79.9223415,20.6047689 79.3262439,20.0093431 78.5898537,20.0093431 Z" id="Fill-4" stroke="#F4F6F7" fill="#FF2E2E" mask="url(#mask-2)"></path>
                </g>
                <path d="M45.1382496,30.2721075 C45.363262,30.7336073 45.8117954,31 46.2748698,31 C46.4680039,31 46.6667307,30.9533227 46.8509165,30.8548902 C46.926045,30.8144626 54.4170755,26.8283379 58.1114177,25.6053534 C58.7812351,25.3827086 59.1527759,24.633528 58.9400674,23.932392 C58.7288503,23.2312559 58.018952,22.8406508 57.3429826,23.0619286 C53.4515914,24.3513159 46.0112679,28.3106841 45.6960268,28.478449 C45.0698324,28.8118304 44.8200257,29.615305 45.1382496,30.2721075 Z" id="Fill-6" stroke="#F4F6F7" fill="#FF2E2E"></path>
                <path d="M45.1382496,46.2715744 C45.363262,46.7330408 45.8117954,47 46.2748698,47 C46.4680039,47 46.6667307,46.9527402 46.8509165,46.8543149 C46.926045,46.8146713 54.4170755,42.8280548 58.1114177,41.6059402 C58.7812351,41.3833115 59.1527759,40.6341853 58.9400674,39.9331001 C58.7288503,39.2312337 58.018952,38.840657 57.3429826,39.0619187 C53.4515914,40.3512125 46.0112679,44.3110746 45.6960268,44.4788273 C45.0698324,44.8121845 44.8200257,45.6148197 45.1382496,46.2715744 Z" id="Fill-7" stroke="#F4F6F7" fill="#FF2E2E"></path>
                <path d="M31.9697446,24.7386901 C23.7367832,22.8040478 14.3816424,25.269005 13.9879226,25.3744421 C13.2778209,25.5655589 12.8550019,26.297554 13.0458075,27.0105743 C13.2059515,27.6072031 13.7438008,28 14.3320368,28 C14.4472624,28 14.5632691,27.9855244 14.6790805,27.9550083 C14.7683315,27.9289914 23.7756474,25.5563649 31.3617835,27.3390135 C32.0752052,27.5056784 32.7960483,27.0608476 32.96459,26.3427413 C33.1325459,25.6258086 32.686877,24.9077023 31.9697446,24.7386901 Z" id="Fill-8" stroke="#F4F6F7" fill="#FF2E2E"></path>
                <path d="M31.9697446,32.7382038 C23.7367832,30.8046426 14.3816424,33.2685978 13.9879226,33.3740506 C13.2778209,33.5651959 12.8550019,34.2973001 13.0458075,35.0104267 C13.2059515,35.6071445 13.7438008,36 14.3320368,36 C14.4472624,36 14.5632691,35.9855223 14.6790805,35.954219 C14.7683315,35.9289808 23.7756474,33.5560006 31.3617835,35.338915 C32.0752052,35.5056047 32.7960483,35.0607076 32.96459,34.3422985 C33.1325459,33.6254546 32.686877,32.9064586 31.9697446,32.7382038 Z" id="Fill-9" stroke="#F4F6F7" fill="#FF2E2E"></path>
                <path d="M45.1382496,54.272285 C45.363262,54.7337961 45.8117954,55 46.2748698,55 C46.4680039,55 46.6667307,54.9535169 46.8509165,54.855082 C46.926045,54.8154346 54.4170755,50.8284314 58.1114177,49.6054171 C58.7812351,49.383548 59.1527759,48.6335679 58.9400674,47.9324147 C58.7288503,47.2312615 58.018952,46.8406469 57.3429826,47.0619301 C53.4515914,48.3511536 46.0112679,52.311595 45.6960268,52.479364 C45.0698324,52.8127535 44.8200257,53.6154665 45.1382496,54.272285 Z" id="Fill-10" stroke="#F4F6F7" fill="#FF2E2E"></path>
                <path d="M31.9697446,40.7385535 C23.7367832,38.8048811 14.3816424,41.2671989 13.9879226,41.3741796 C13.2778209,41.5652586 12.8550019,42.2963264 13.0458075,43.0097923 C13.2059515,43.6064985 13.7438008,44 14.3320368,44 C14.4472624,44 14.5632691,43.9839627 14.6790805,43.9534526 C14.7683315,43.9282231 23.7756474,41.5552842 31.3617835,43.3375798 C32.0752052,43.5049939 32.7960483,43.0602512 32.96459,42.3420915 C33.1325459,41.6247141 32.686877,40.90675 31.9697446,40.7385535 Z" id="Fill-11" stroke="#F4F6F7" fill="#FF2E2E"></path>
                <path d="M31.9697446,56.7384012 C23.7367832,54.8045155 14.3816424,57.2685088 13.9879226,57.3739045 C13.2778209,57.5649466 12.8550019,58.2966554 13.0458075,59.0092014 C13.2059515,59.6057924 13.7438008,60 14.3320368,60 C14.4472624,60 14.5632691,59.9839658 14.6790805,59.9534616 C14.7683315,59.9274548 23.7756474,57.5557563 31.3617835,59.3377077 C32.0752052,59.5035252 32.7960483,59.0596506 32.96459,58.3416295 C33.1325459,57.6251728 32.686877,56.9071518 31.9697446,56.7384012 Z" id="Fill-12" stroke="#F4F6F7" fill="#FF2E2E"></path>
                <path d="M31.9697446,48.7390396 C23.7367832,46.8042866 14.3816424,49.2676062 13.9879226,49.374571 C13.2778209,49.5648393 12.8550019,50.2965804 13.0458075,51.0093532 C13.2059515,51.605775 13.7438008,52 14.3320368,52 C14.4472624,52 14.5632691,51.9839651 14.6790805,51.9534595 C14.7683315,51.9282338 23.7756474,49.5556486 31.3617835,51.3376785 C32.0752052,51.5050677 32.7960483,51.0603913 32.96459,50.3415564 C33.1325459,49.6250681 32.686877,48.907211 31.9697446,48.7390396 Z" id="Fill-13" stroke="#F4F6F7" fill="#FF2E2E"></path>
            </g>
        </g>
    </g>
</svg>